TAREA2
…
aus_production

# A tsibble: 218 x 7 [1Q]
   Quarter  Beer Tobacco Bricks Cement Electricity   Gas
     <qtr> <dbl>   <dbl>  <dbl>  <dbl>       <dbl> <dbl>
 1 1956 Q1   284    5225    189    465        3923     5
 2 1956 Q2   213    5178    204    532        4436     6
 3 1956 Q3   227    5297    208    561        4806     7
 4 1956 Q4   308    5681    197    570        4418     6
 5 1957 Q1   262    5577    187    529        4339     5
 6 1957 Q2   228    5651    214    604        4811     7
 7 1957 Q3   236    5317    227    603        5259     7
 8 1957 Q4   320    6152    222    582        4735     6
 9 1958 Q1   272    5758    199    554        4608     5
10 1958 Q2   233    5641    229    620        5196     7
# ℹ 208 more rows
…
# A tibble: 4 × 10
  .model   .type           ME  RMSE   MAE    MPE  MAPE  MASE RMSSE    ACF1
  <chr>    <chr>        <dbl> <dbl> <dbl>  <dbl> <dbl> <dbl> <dbl>   <dbl>
1 ETS_mam  Training -5.50e+ 1  438.  333. -1.35   5.75 0.825 0.842 -0.0408
2 ETS_AAA  Training  5.00e+ 0  432.  332. -0.410  5.77 0.823 0.830  0.0579
3 Drift_bc Training  3.88e- 1  808.  669. -0.937 11.2  1.66  1.55  -0.302 
4 Drift    Training  1.92e-14  809.  670. -0.942 11.2  1.66  1.55  -0.302 

tobaco_aug <- tobaco_fit |> 
  augment()

tobaco_aug

# A tsibble: 384 x 6 [1Q]
# Key:       .model [4]
   .model Quarter Tobacco .fitted  .resid  .innov
   <chr>    <qtr>   <dbl>   <dbl>   <dbl>   <dbl>
 1 Drift  1980 Q1    6794     NA     NA      NA  
 2 Drift  1980 Q2    8168   6770.  1398.   1398. 
 3 Drift  1980 Q3    8097   8144.   -47.1   -47.1
 4 Drift  1980 Q4    7820   8073.  -253.   -253. 
 5 Drift  1981 Q1    6437   7796. -1359.  -1359. 
 6 Drift  1981 Q2    7995   6413.  1582.   1582. 
 7 Drift  1981 Q3    8238   7971.   267.    267. 
 8 Drift  1981 Q4    8026   8214.  -188.   -188. 
 9 Drift  1982 Q1    6697   8002. -1305.  -1305. 
10 Drift  1982 Q2    7749   6673.  1076.   1076. 
# ℹ 374 more rows
…
tobacco_fc <- tobaco_fit |> 
  forecast(h = 10)
tobacco_fc

# A fable: 40 x 4 [1Q]
# Key:     .model [4]
   .model Quarter          Tobacco .mean
   <chr>    <qtr>           <dist> <dbl>
 1 Drift  2004 Q1  N(4502, 667725) 4502.
 2 Drift  2004 Q2 N(4478, 1349361) 4478.
 3 Drift  2004 Q3   N(4454, 2e+06) 4454.
 4 Drift  2004 Q4 N(4431, 2754365) 4431.
 5 Drift  2005 Q1 N(4407, 3477733) 4407.
 6 Drift  2005 Q2 N(4383, 4215013) 4383.
 7 Drift  2005 Q3   N(4359, 5e+06) 4359.
 8 Drift  2005 Q4 N(4335, 5731304) 4335.
 9 Drift  2006 Q1 N(4311, 6510317) 4311.
10 Drift  2006 Q2 N(4287, 7303240) 4287.
# ℹ 30 more rows
…
# A tibble: 4 × 10
  .model   .type      ME  RMSE   MAE    MPE  MAPE  MASE RMSSE  ACF1
  <chr>    <chr>   <dbl> <dbl> <dbl>  <dbl> <dbl> <dbl> <dbl> <dbl>
1 ETS_AAA  Test   71.9    245.  234.  1.00   5.08 0.580 0.470  -0.5
2 ETS_mam  Test   -0.840  225.  225. -0.613  5.08 0.559 0.433  -0.5
3 Drift_bc Test  -11.2    531.  531. -1.65  12.0  1.32  1.02   -0.5
4 Drift    Test   10.3    539.  538. -1.19  12.1  1.34  1.04   -0.5

Serie sin estacionalidad pero con tendencia:

global_economy

# A tsibble: 15,150 x 9 [1Y]
# Key:       Country [263]
   Country     Code   Year         GDP Growth   CPI Imports Exports Population
   <fct>       <fct> <dbl>       <dbl>  <dbl> <dbl>   <dbl>   <dbl>      <dbl>
 1 Afghanistan AFG    1960  537777811.     NA    NA    7.02    4.13    8996351
 2 Afghanistan AFG    1961  548888896.     NA    NA    8.10    4.45    9166764
 3 Afghanistan AFG    1962  546666678.     NA    NA    9.35    4.88    9345868
 4 Afghanistan AFG    1963  751111191.     NA    NA   16.9     9.17    9533954
 5 Afghanistan AFG    1964  800000044.     NA    NA   18.1     8.89    9731361
 6 Afghanistan AFG    1965 1006666638.     NA    NA   21.4    11.3     9938414
 7 Afghanistan AFG    1966 1399999967.     NA    NA   18.6     8.57   10152331
 8 Afghanistan AFG    1967 1673333418.     NA    NA   14.2     6.77   10372630
 9 Afghanistan AFG    1968 1373333367.     NA    NA   15.2     8.90   10604346
10 Afghanistan AFG    1969 1408888922.     NA    NA   15.0    10.1    10854428
# ℹ 15,140 more rows
…
